EESchema Schematic File Version 2
LIBS:power
LIBS:device
LIBS:transistors
LIBS:conn
LIBS:linear
LIBS:regul
LIBS:74xx
LIBS:cmos4000
LIBS:adc-dac
LIBS:memory
LIBS:xilinx
LIBS:special
LIBS:microcontrollers
LIBS:dsp
LIBS:microchip
LIBS:analog_switches
LIBS:motorola
LIBS:texas
LIBS:intel
LIBS:audio
LIBS:interface
LIBS:digital-audio
LIBS:philips
LIBS:display
LIBS:cypress
LIBS:siliconi
LIBS:opto
LIBS:atmel
LIBS:contrib
LIBS:valves
LIBS:dac
LIBS:wavetable_vco-cache
EELAYER 24 0
EELAYER END
$Descr A4 11693 8268
encoding utf-8
Sheet 2 2
Title "Wavetable VCO"
Date "6 jul 2013"
Rev "3"
Comp "No-FI"
Comment1 ""
Comment2 ""
Comment3 ""
Comment4 ""
$EndDescr
Wire Wire Line
	2250 6500 2350 6500
Wire Wire Line
	2250 6300 2350 6300
Wire Wire Line
	1300 6950 1300 7050
Wire Wire Line
	1700 6950 1700 7050
Wire Wire Line
	1100 6550 1100 6200
Wire Wire Line
	1100 6200 1750 6200
Wire Wire Line
	1500 6550 1500 6400
Wire Wire Line
	1500 6400 1750 6400
Wire Wire Line
	7750 3300 7250 3300
Wire Wire Line
	7250 3300 7250 3800
Connection ~ 7250 2650
Wire Wire Line
	7750 3400 7550 3400
Wire Wire Line
	7550 2650 7550 3400
Wire Wire Line
	7150 2650 7550 2650
Wire Wire Line
	8550 3400 8850 3400
Connection ~ 4400 5350
Wire Wire Line
	4200 5350 4600 5350
Wire Wire Line
	7400 5100 7200 5100
Connection ~ 6950 3050
Wire Wire Line
	6750 3050 7250 3050
Connection ~ 4400 3150
Wire Wire Line
	4200 3150 4650 3150
Wire Wire Line
	9000 1950 8600 1950
Wire Wire Line
	8600 1950 8600 3300
Wire Wire Line
	9500 2850 9850 2850
Wire Wire Line
	9550 2650 9550 2850
Wire Wire Line
	8550 3700 9000 3700
Connection ~ 4600 5350
Wire Wire Line
	7250 4950 7400 4950
Wire Wire Line
	6600 5550 6600 4950
Wire Wire Line
	6600 3250 6600 2650
Wire Wire Line
	4100 3150 4100 2550
Connection ~ 8750 4150
Wire Wire Line
	8750 4000 8750 4250
Wire Wire Line
	8550 3500 8750 3500
Wire Wire Line
	8750 3500 8750 3900
Connection ~ 6600 2650
Connection ~ 4100 4950
Connection ~ 6600 4950
Connection ~ 4900 4500
Wire Wire Line
	4900 4350 4900 4850
Connection ~ 4900 2200
Wire Wire Line
	4900 2050 4900 2550
Connection ~ 2400 4500
Wire Wire Line
	2400 4350 2400 4750
Wire Wire Line
	4900 1950 5300 1950
Wire Wire Line
	4900 4250 5300 4250
Wire Wire Line
	2400 4250 2800 4250
Wire Wire Line
	2400 1850 2800 1850
Wire Wire Line
	2800 3100 2800 3050
Connection ~ 9550 2850
Wire Wire Line
	9550 2250 9550 1950
Wire Wire Line
	6600 5550 5600 5550
Wire Wire Line
	5300 5450 5300 5550
Wire Wire Line
	5300 4750 5300 4950
Wire Wire Line
	5600 5550 5600 5050
Wire Wire Line
	5600 4850 5300 4850
Connection ~ 5300 4850
Wire Wire Line
	7400 5550 7400 5500
Wire Wire Line
	6950 3500 6950 3450
Connection ~ 5300 2550
Wire Wire Line
	5600 2550 5300 2550
Wire Wire Line
	5600 2750 5600 3250
Wire Wire Line
	5300 2450 5300 2650
Wire Wire Line
	5300 3150 5300 3250
Wire Wire Line
	5600 3250 6600 3250
Wire Wire Line
	3100 5550 4100 5550
Wire Wire Line
	2800 5450 2800 5550
Wire Wire Line
	2800 4750 2800 4950
Wire Wire Line
	3100 5550 3100 5050
Wire Wire Line
	3100 4850 2800 4850
Connection ~ 2800 4850
Wire Wire Line
	4400 5850 4400 5750
Wire Wire Line
	4400 3600 4400 3550
Connection ~ 2800 2450
Wire Wire Line
	3100 2450 2800 2450
Wire Wire Line
	4100 3150 3100 3150
Wire Wire Line
	2800 2350 2800 2550
Wire Wire Line
	2800 3600 2800 3750
Wire Wire Line
	4100 5550 4100 4950
Connection ~ 9550 1950
Wire Wire Line
	2950 3350 3050 3350
Wire Wire Line
	3050 3350 3050 3650
Wire Wire Line
	3050 3650 2800 3650
Connection ~ 2800 3650
Wire Wire Line
	3100 3150 3100 2650
Connection ~ 4100 2550
Wire Wire Line
	4650 2550 4650 3800
Wire Wire Line
	4650 3800 7250 3800
Wire Wire Line
	7750 3700 7700 3700
Wire Wire Line
	8600 3300 8550 3300
Wire Wire Line
	7750 3500 7400 3500
Wire Wire Line
	4600 4950 4600 5850
Wire Wire Line
	4600 5850 7550 5850
Wire Wire Line
	7550 5850 7550 3600
Wire Wire Line
	7550 3600 7750 3600
Wire Wire Line
	2400 2100 2400 2350
Wire Wire Line
	4100 2550 4150 2550
Connection ~ 4650 3150
Wire Wire Line
	6600 2650 6650 2650
Wire Wire Line
	6600 4950 6750 4950
Wire Wire Line
	7400 3500 7400 5100
Connection ~ 7400 4950
Wire Wire Line
	9500 1950 9850 1950
Wire Wire Line
	9000 3700 9000 2850
Wire Wire Line
	9700 5100 9700 5050
Wire Wire Line
	9700 5050 9300 5050
Wire Wire Line
	4400 3550 4200 3550
Connection ~ 4400 3550
Wire Wire Line
	6950 3450 6750 3450
Connection ~ 6950 3450
Wire Wire Line
	7400 5500 7200 5500
Connection ~ 7400 5100
Connection ~ 7400 5500
Wire Wire Line
	4400 5750 4200 5750
Connection ~ 4400 5750
Wire Wire Line
	7700 3700 7700 5050
Wire Wire Line
	7700 5050 8700 5050
Wire Wire Line
	7250 3050 7250 2650
Wire Wire Line
	1700 6550 1700 6500
Wire Wire Line
	1700 6500 1750 6500
Wire Wire Line
	1750 6300 1300 6300
Wire Wire Line
	1300 6300 1300 6550
Wire Wire Line
	1100 6950 1100 7050
Wire Wire Line
	1500 6950 1500 7050
Wire Wire Line
	2250 6200 2350 6200
Wire Wire Line
	2250 6400 2350 6400
Text GLabel 1700 7050 3    50   Input ~ 0
SGND
Text GLabel 1500 7050 3    50   Input ~ 0
SGND
Text GLabel 1300 7050 3    50   Input ~ 0
SGND
Text GLabel 1100 7050 3    50   Input ~ 0
SGND
$Comp
L LED D6
U 1 1 51D8786A
P 1100 6750
F 0 "D6" H 1100 6850 50  0000 C CNN
F 1 "LED" H 1100 6650 50  0001 C CNN
F 2 "" H 1100 6750 60  0001 C CNN
F 3 "" H 1100 6750 60  0001 C CNN
	1    1100 6750
	0    1    1    0   
$EndComp
$Comp
L LED D7
U 1 1 51D87869
P 1300 6750
F 0 "D7" H 1300 6850 50  0000 C CNN
F 1 "LED" H 1300 6650 50  0001 C CNN
F 2 "" H 1300 6750 60  0001 C CNN
F 3 "" H 1300 6750 60  0001 C CNN
	1    1300 6750
	0    1    1    0   
$EndComp
$Comp
L LED D8
U 1 1 51D87866
P 1500 6750
F 0 "D8" H 1500 6850 50  0000 C CNN
F 1 "LED" H 1500 6650 50  0001 C CNN
F 2 "" H 1500 6750 60  0001 C CNN
F 3 "" H 1500 6750 60  0001 C CNN
	1    1500 6750
	0    1    1    0   
$EndComp
$Comp
L LED D9
U 1 1 51D87843
P 1700 6750
F 0 "D9" H 1700 6850 50  0000 C CNN
F 1 "LED" H 1700 6650 50  0001 C CNN
F 2 "" H 1700 6750 60  0001 C CNN
F 3 "" H 1700 6750 60  0001 C CNN
	1    1700 6750
	0    1    1    0   
$EndComp
$Comp
L R R38
U 1 1 51D87778
P 2000 6500
F 0 "R38" V 2000 6500 50  0000 C CNN
F 1 "470" V 2000 6500 50  0001 C CNN
F 2 "" H 2000 6500 60  0001 C CNN
F 3 "" H 2000 6500 60  0001 C CNN
	1    2000 6500
	0    1    1    0   
$EndComp
$Comp
L R R37
U 1 1 51D87776
P 2000 6400
F 0 "R37" V 2000 6400 50  0000 C CNN
F 1 "470" V 2000 6400 50  0001 C CNN
F 2 "" H 2000 6400 60  0001 C CNN
F 3 "" H 2000 6400 60  0001 C CNN
	1    2000 6400
	0    1    1    0   
$EndComp
$Comp
L R R36
U 1 1 51D87774
P 2000 6300
F 0 "R36" V 2000 6300 50  0000 C CNN
F 1 "470" V 2000 6300 50  0001 C CNN
F 2 "" H 2000 6300 60  0001 C CNN
F 3 "" H 2000 6300 60  0001 C CNN
	1    2000 6300
	0    1    1    0   
$EndComp
$Comp
L R R35
U 1 1 51D8776A
P 2000 6200
F 0 "R35" V 2000 6200 50  0000 C CNN
F 1 "470" V 1900 6200 50  0000 C CNN
F 2 "" H 2000 6200 60  0001 C CNN
F 3 "" H 2000 6200 60  0001 C CNN
	1    2000 6200
	0    1    1    0   
$EndComp
$Comp
L CONN_4 J14
U 1 1 51D87644
P 2700 6350
F 0 "J14" V 2650 6350 50  0000 C CNN
F 1 "LEDS" V 2750 6350 50  0000 C CNN
F 2 "" H 2700 6350 60  0001 C CNN
F 3 "" H 2700 6350 60  0001 C CNN
	1    2700 6350
	1    0    0    -1  
$EndComp
$Comp
L C C17
U 1 1 51D7609E
P 4200 5550
F 0 "C17" H 4100 5650 50  0000 L CNN
F 1 "1n" H 4100 5450 50  0000 L CNN
F 2 "" H 4200 5550 60  0001 C CNN
F 3 "" H 4200 5550 60  0001 C CNN
	1    4200 5550
	1    0    0    -1  
$EndComp
$Comp
L C C19
U 1 1 51D76087
P 7200 5300
F 0 "C19" H 7100 5400 50  0000 L CNN
F 1 "1n" H 7100 5200 50  0000 L CNN
F 2 "" H 7200 5300 60  0001 C CNN
F 3 "" H 7200 5300 60  0001 C CNN
	1    7200 5300
	1    0    0    -1  
$EndComp
$Comp
L C C18
U 1 1 51D76073
P 6750 3250
F 0 "C18" H 6650 3350 50  0000 L CNN
F 1 "1n" H 6650 3150 50  0000 L CNN
F 2 "" H 6750 3250 60  0001 C CNN
F 3 "" H 6750 3250 60  0001 C CNN
	1    6750 3250
	1    0    0    -1  
$EndComp
$Comp
L C C16
U 1 1 51D76031
P 4200 3350
F 0 "C16" H 4100 3450 50  0000 L CNN
F 1 "1n" H 4100 3250 50  0000 L CNN
F 2 "" H 4200 3350 60  0001 C CNN
F 3 "" H 4200 3350 60  0001 C CNN
	1    4200 3350
	1    0    0    -1  
$EndComp
$Comp
L R R21
U 1 1 51D73106
P 2800 2100
F 0 "R21" V 2880 2100 50  0000 C CNN
F 1 "100K" V 2800 2100 50  0000 C CNN
F 2 "" H 2800 2100 60  0001 C CNN
F 3 "" H 2800 2100 60  0001 C CNN
	1    2800 2100
	1    0    0    -1  
$EndComp
$Comp
L R R22
U 1 1 51D73105
P 2800 2800
F 0 "R22" V 2880 2800 50  0000 C CNN
F 1 "25K" V 2800 2800 50  0000 C CNN
F 2 "" H 2800 2800 60  0001 C CNN
F 3 "" H 2800 2800 60  0001 C CNN
	1    2800 2800
	1    0    0    -1  
$EndComp
$Comp
L ZENER D2
U 1 1 51D73104
P 4400 3350
F 0 "D2" H 4300 3400 50  0000 C CNN
F 1 "5V1" H 4400 3250 40  0000 C CNN
F 2 "" H 4400 3350 60  0001 C CNN
F 3 "" H 4400 3350 60  0001 C CNN
	1    4400 3350
	0    -1   -1   0   
$EndComp
$Comp
L ZENER D3
U 1 1 51D73103
P 4400 5550
F 0 "D3" H 4300 5600 50  0000 C CNN
F 1 "5V1" H 4400 5450 40  0000 C CNN
F 2 "" H 4400 5550 60  0001 C CNN
F 3 "" H 4400 5550 60  0001 C CNN
	1    4400 5550
	0    -1   -1   0   
$EndComp
$Comp
L R R24
U 1 1 51D73102
P 2800 5200
F 0 "R24" V 2880 5200 50  0000 C CNN
F 1 "27K" V 2800 5200 50  0000 C CNN
F 2 "" H 2800 5200 60  0001 C CNN
F 3 "" H 2800 5200 60  0001 C CNN
	1    2800 5200
	1    0    0    -1  
$EndComp
$Comp
L R R23
U 1 1 51D73101
P 2800 4500
F 0 "R23" V 2880 4500 50  0000 C CNN
F 1 "75K" V 2800 4500 50  0000 C CNN
F 2 "" H 2800 4500 60  0001 C CNN
F 3 "" H 2800 4500 60  0001 C CNN
	1    2800 4500
	1    0    0    -1  
$EndComp
$Comp
L R R28
U 1 1 51D73100
P 5300 2900
F 0 "R28" V 5380 2900 50  0000 C CNN
F 1 "27K" V 5300 2900 50  0000 C CNN
F 2 "" H 5300 2900 60  0001 C CNN
F 3 "" H 5300 2900 60  0001 C CNN
	1    5300 2900
	1    0    0    -1  
$EndComp
$Comp
L ZENER D4
U 1 1 51D730FF
P 6950 3250
F 0 "D4" H 6850 3300 50  0000 C CNN
F 1 "5V1" H 6950 3150 40  0000 C CNN
F 2 "" H 6950 3250 60  0001 C CNN
F 3 "" H 6950 3250 60  0001 C CNN
	1    6950 3250
	0    -1   -1   0   
$EndComp
$Comp
L ZENER D5
U 1 1 51D730FE
P 7400 5300
F 0 "D5" H 7300 5350 50  0000 C CNN
F 1 "5V1" H 7400 5200 40  0000 C CNN
F 2 "" H 7400 5300 60  0001 C CNN
F 3 "" H 7400 5300 60  0001 C CNN
	1    7400 5300
	0    -1   -1   0   
$EndComp
$Comp
L R R30
U 1 1 51D730FD
P 5300 5200
F 0 "R30" V 5380 5200 50  0000 C CNN
F 1 "27K" V 5300 5200 50  0000 C CNN
F 2 "" H 5300 5200 60  0001 C CNN
F 3 "" H 5300 5200 60  0001 C CNN
	1    5300 5200
	1    0    0    -1  
$EndComp
$Comp
L R R29
U 1 1 51D730FC
P 5300 4500
F 0 "R29" V 5380 4500 50  0000 C CNN
F 1 "75K" V 5300 4500 50  0000 C CNN
F 2 "" H 5300 4500 60  0001 C CNN
F 3 "" H 5300 4500 60  0001 C CNN
	1    5300 4500
	1    0    0    -1  
$EndComp
$Comp
L C C15
U 1 1 51D730FB
P 9550 2450
F 0 "C15" H 9600 2550 50  0000 L CNN
F 1 "100n" H 9550 2350 50  0000 L CNN
F 2 "" H 9550 2450 60  0001 C CNN
F 3 "" H 9550 2450 60  0001 C CNN
	1    9550 2450
	1    0    0    -1  
$EndComp
$Comp
L POT T3
U 1 1 51D730FA
P 2800 3350
F 0 "T3" H 2800 3250 50  0000 C CNN
F 1 "25K" H 2800 3350 50  0000 C CNN
F 2 "" H 2800 3350 60  0001 C CNN
F 3 "" H 2800 3350 60  0001 C CNN
	1    2800 3350
	0    1    1    0   
$EndComp
Text Notes 3600 1700 0    100  ~ 0
CV Inputs
$Comp
L SW_PUSH SW1
U 1 1 51D730F9
P 9000 5050
F 0 "SW1" H 9150 5160 50  0000 C CNN
F 1 "BUTTON" H 9000 4970 50  0000 C CNN
F 2 "" H 9000 5050 60  0001 C CNN
F 3 "" H 9000 5050 60  0001 C CNN
	1    9000 5050
	1    0    0    -1  
$EndComp
Text Notes 9500 5400 2    100  ~ 0
FX Selector
$Comp
L R R27
U 1 1 51D730F8
P 5300 2200
F 0 "R27" V 5380 2200 50  0000 C CNN
F 1 "75K" V 5300 2200 50  0000 C CNN
F 2 "" H 5300 2200 60  0001 C CNN
F 3 "" H 5300 2200 60  0001 C CNN
	1    5300 2200
	1    0    0    -1  
$EndComp
$Comp
L JACK_2P J7
U 1 1 51D730F7
P 1950 1950
F 0 "J7" H 1600 1750 60  0000 C CNN
F 1 "FREQ CV" H 1800 2200 60  0000 C CNN
F 2 "" H 1950 1950 60  0001 C CNN
F 3 "" H 1950 1950 60  0001 C CNN
	1    1950 1950
	1    0    0    1   
$EndComp
$Comp
L JACK_2P J8
U 1 1 51D730F6
P 1950 4350
F 0 "J8" H 1600 4150 60  0000 C CNN
F 1 "WAVE CV" H 1800 4600 60  0000 C CNN
F 2 "" H 1950 4350 60  0001 C CNN
F 3 "" H 1950 4350 60  0001 C CNN
	1    1950 4350
	1    0    0    1   
$EndComp
$Comp
L JACK_2P J9
U 1 1 51D730F5
P 4450 2050
F 0 "J9" H 4100 1850 60  0000 C CNN
F 1 "FADE CV" H 4300 2300 60  0000 C CNN
F 2 "" H 4450 2050 60  0001 C CNN
F 3 "" H 4450 2050 60  0001 C CNN
	1    4450 2050
	1    0    0    1   
$EndComp
$Comp
L JACK_2P J10
U 1 1 51D730F4
P 4450 4350
F 0 "J10" H 4100 4150 60  0000 C CNN
F 1 "FX CV" H 4300 4600 60  0000 C CNN
F 2 "" H 4450 4350 60  0001 C CNN
F 3 "" H 4450 4350 60  0001 C CNN
	1    4450 4350
	1    0    0    1   
$EndComp
$Comp
L CONN_5X2 J11
U 1 1 51D730F3
P 8150 3500
F 0 "J11" H 8150 3800 60  0000 C CNN
F 1 "INTER PCB" V 8150 3500 50  0000 C CNN
F 2 "" H 8150 3500 60  0001 C CNN
F 3 "" H 8150 3500 60  0001 C CNN
	1    8150 3500
	1    0    0    -1  
$EndComp
$Comp
L JACK_2P J12
U 1 1 51D730F2
P 9200 4000
F 0 "J12" H 8850 3800 60  0000 C CNN
F 1 "SYNC" H 9050 4250 60  0000 C CNN
F 2 "" H 9200 4000 60  0001 C CNN
F 3 "" H 9200 4000 60  0001 C CNN
	1    9200 4000
	-1   0    0    1   
$EndComp
Text GLabel 8550 3600 2    60   Input ~ 0
CV
Text GLabel 2400 1950 2    60   Input ~ 0
CV
$Comp
L R R26
U 1 1 51D730F1
P 4400 2550
F 0 "R26" V 4480 2550 50  0000 C CNN
F 1 "100" V 4400 2550 50  0000 C CNN
F 2 "" H 4400 2550 60  0001 C CNN
F 3 "" H 4400 2550 60  0001 C CNN
	1    4400 2550
	0    1    1    0   
$EndComp
$Comp
L R R31
U 1 1 51D730F0
P 6900 2650
F 0 "R31" V 6980 2650 50  0000 C CNN
F 1 "100" V 6900 2650 50  0000 C CNN
F 2 "" H 6900 2650 60  0001 C CNN
F 3 "" H 6900 2650 60  0001 C CNN
	1    6900 2650
	0    1    1    0   
$EndComp
$Comp
L R R32
U 1 1 51D730EF
P 7000 4950
F 0 "R32" V 7080 4950 50  0000 C CNN
F 1 "100" V 7000 4950 50  0000 C CNN
F 2 "" H 7000 4950 60  0001 C CNN
F 3 "" H 7000 4950 60  0001 C CNN
	1    7000 4950
	0    1    1    0   
$EndComp
$Comp
L R R25
U 1 1 51D730EE
P 4350 4950
F 0 "R25" V 4430 4950 50  0000 C CNN
F 1 "100" V 4350 4950 50  0000 C CNN
F 2 "" H 4350 4950 60  0001 C CNN
F 3 "" H 4350 4950 60  0001 C CNN
	1    4350 4950
	0    1    1    0   
$EndComp
Text Notes 8800 4650 0    100  ~ 0
Sync Input
$Comp
L TL074 U5
U 2 1 51D730ED
P 3600 4950
F 0 "U5" H 3650 5150 60  0000 C CNN
F 1 "TL074" H 3750 4750 50  0000 C CNN
F 2 "" H 3600 4950 60  0001 C CNN
F 3 "" H 3600 4950 60  0001 C CNN
	2    3600 4950
	1    0    0    -1  
$EndComp
$Comp
L TL074 U5
U 1 1 51D730EC
P 3600 2550
F 0 "U5" H 3650 2750 60  0000 C CNN
F 1 "TL074" H 3750 2350 50  0000 C CNN
F 2 "" H 3600 2550 60  0001 C CNN
F 3 "" H 3600 2550 60  0001 C CNN
	1    3600 2550
	1    0    0    -1  
$EndComp
$Comp
L TL074 U5
U 4 1 51D730EB
P 6100 2650
F 0 "U5" H 6150 2850 60  0000 C CNN
F 1 "TL074" H 6250 2450 50  0000 C CNN
F 2 "" H 6100 2650 60  0001 C CNN
F 3 "" H 6100 2650 60  0001 C CNN
	4    6100 2650
	1    0    0    -1  
$EndComp
$Comp
L TL074 U5
U 3 1 51D730EA
P 6100 4950
F 0 "U5" H 6150 5150 60  0000 C CNN
F 1 "TL074" H 6250 4750 50  0000 C CNN
F 2 "" H 6100 4950 60  0001 C CNN
F 3 "" H 6100 4950 60  0001 C CNN
	3    6100 4950
	1    0    0    -1  
$EndComp
Text GLabel 8850 3400 3    50   Input ~ 0
SGND
Text GLabel 6950 3500 3    50   Input ~ 0
SGND
Text GLabel 4400 3600 3    50   Input ~ 0
SGND
Text GLabel 2800 3750 3    50   Input ~ 0
SGND
Text GLabel 2400 2350 3    50   Input ~ 0
SGND
Text GLabel 2400 4750 3    50   Input ~ 0
SGND
Text GLabel 2800 5550 3    50   Input ~ 0
SGND
Text GLabel 4900 4850 3    50   Input ~ 0
SGND
Text GLabel 4400 5850 3    50   Input ~ 0
SGND
Text GLabel 5300 5550 3    50   Input ~ 0
SGND
Text GLabel 7400 5550 3    50   Input ~ 0
SGND
Text GLabel 5300 3250 3    50   Input ~ 0
SGND
Text GLabel 8750 4250 3    50   Input ~ 0
SGND
Text GLabel 4900 2550 3    50   Input ~ 0
SGND
$Comp
L R R33
U 1 1 51D730E8
P 9250 1950
F 0 "R33" V 9330 1950 50  0000 C CNN
F 1 "10" V 9250 1950 50  0000 C CNN
F 2 "" H 9250 1950 60  0001 C CNN
F 3 "" H 9250 1950 60  0001 C CNN
	1    9250 1950
	0    -1   -1   0   
$EndComp
$Comp
L R R34
U 1 1 51D730E7
P 9250 2850
F 0 "R34" V 9330 2850 50  0000 C CNN
F 1 "10" V 9250 2850 50  0000 C CNN
F 2 "" H 9250 2850 60  0001 C CNN
F 3 "" H 9250 2850 60  0001 C CNN
	1    9250 2850
	0    -1   -1   0   
$EndComp
Text GLabel 9700 5100 3    50   Input ~ 0
SGND
Text GLabel 9850 1850 1    31   Input ~ 0
+SUB
Wire Wire Line
	9850 1950 9850 1850
Text GLabel 9850 2950 3    31   Input ~ 0
-SUB
Wire Wire Line
	9850 2850 9850 2950
Text GLabel 6000 3050 3    31   Input ~ 0
-SUB
Text GLabel 3500 2950 3    31   Input ~ 0
-SUB
Text GLabel 6000 5350 3    31   Input ~ 0
-SUB
Text GLabel 3500 5350 3    31   Input ~ 0
-SUB
Text GLabel 6000 2250 1    31   Input ~ 0
+SUB
Text GLabel 3500 2150 1    31   Input ~ 0
+SUB
Text GLabel 3500 4550 1    31   Input ~ 0
+SUB
Text GLabel 6000 4550 1    31   Input ~ 0
+SUB
$EndSCHEMATC
